…
``` r
link <- "https://ucr.fbi.gov/crime-in-the-u.s/2015/crime-in-the-u.s.-2015/tables/table-9/table_9_offenses_known_to_law_enforcement_by_state_by_university_and_college_2015.xls"
file <- "crime.xls"
download.file(link, file)
```

The `readxl` package allows you to import Excel spreadsheets (.xls/.xlsx
files) directly into R.

``` r
read_xls(file)
```

    ## # A tibble: 691 x 19
    ##    `Table 9`  X__1   X__2  X__3  X__4  X__5  X__6  X__7  X__8  X__9  X__10
    ##    <chr>      <chr>  <chr> <chr> <chr> <chr> <chr> <chr> <chr> <chr> <chr>
    ##  1 Offenses … <NA>   <NA>  <NA>  <NA>  <NA>  <NA>  <NA>  <NA>  <NA>  <NA> 
    ##  2 by State … <NA>   <NA>  <NA>  <NA>  <NA>  <NA>  <NA>  <NA>  <NA>  <NA> 
    ##  3 State      Unive… Camp… "Stu… "Vio… "Mur… "Rap… "Rap… Robb… "Agg… "Pro…
    ##  4 ALABAMA    Alaba… <NA>  5333  12    0     2     <NA>  3     7     78   
    ##  5 <NA>       Jacks… <NA>  8659  7     0     0     <NA>  0     7     59   
    ##  6 <NA>       Samfo… <NA>  4933  3     0     0     <NA>  0     3     46   
    ##  7 <NA>       Tuske… <NA>  3103  5     0     0     <NA>  1     4     112  
    ##  8 <NA>       Unive… Birm… 18698 24    0     2     <NA>  3     19    395  
    ##  9 <NA>       <NA>   Hunt… 7348  10    0     1     <NA>  1     8     73   
    ## 10 <NA>       <NA>   Tusc… 36047 15    0     3     <NA>  9     3     359  
    ## # ... with 681 more rows, and 8 more variables: X__11 <chr>, X__12 <chr>,
    ## #   X__13 <chr>, X__14 <chr>, X__15 <lgl>, X__16 <lgl>, X__17 <lgl>,
    ## #   X__18 <lgl>

Looks like the data we want is actually a litter lower down in the file.
We can skip over lines at the top with the `skip` parameter.

``` r
(crime <- read_xls(file, skip = 3))
```

    ## # A tibble: 688 x 19
    ##    State  `University/College`  Campus  `Student\nenroll… `Violent\ncrime`
    ##    <chr>  <chr>                 <chr>               <dbl>            <dbl>
    ##  1 ALABA… Alabama A&M Universi… <NA>                 5333               12
    ##  2 <NA>   Jacksonville State U… <NA>                 8659                7
    ##  3 <NA>   Samford University    <NA>                 4933                3
    ##  4 <NA>   Tuskegee University   <NA>                 3103                5
    ##  5 <NA>   University of Alabam… Birmin…             18698               24
    ##  6 <NA>   <NA>                  Huntsv…              7348               10
    ##  7 <NA>   <NA>                  Tuscal…             36047               15
    ##  8 <NA>   University of South … <NA>                15805               21
    ##  9 ALASKA University of Alaska: Anchor…             17151                4
    ## 10 <NA>   <NA>                  Fairba…              8620                3
    ## # ... with 678 more rows, and 14 more variables: `Murder
    ## #   and\nnonnegligent\nmanslaughter` <dbl>,
    ## #   `Rape\n(revised\ndefinition)2` <dbl>,
    ## #   `Rape\n(legacy\ndefinition)3` <dbl>, Robbery <dbl>,
    ## #   `Aggravated\nassault` <dbl>, `Property\ncrime` <dbl>, Burglary <dbl>,
    ## #   `Larceny-\ntheft` <dbl>, `Motor\nvehicle\ntheft` <dbl>, Arson4 <dbl>,
    ## #   X__1 <lgl>, X__2 <lgl>, X__3 <lgl>, X__4 <lgl>
…
For more reading on regex’s check: [Regex
cheatsheet](http://regexlib.com/\(X\(1\)A\(xSygfbbpgXfgBpYdzZKZbaM80NvGWFKqz8H3p14z0goMZmVZU6P1V8S_EcyNeeY0ryvSsa9Ndw9_54dwIXQI5fjTdwJzOo1NhOnVqmLTuZ1NDcdA-UseLK7W01hB-KYIvuVOGgWiImZ-T7mf0uWFBNQbtY1KXM9TgHosz31NGuevvup3lyGMYJLwdgybbcAg0\)\)/CheatSheet.aspx)

# Fill in missing values

Take a look at the `state` and `university.college` columns. Each row
labeled as `NA` takes the value of the previously assigned row. We need
a way to fill these values down.

``` r
crime
```

    ## # A tibble: 680 x 15
    ##    state   university.college     campus   student_enrollme… violent_crime
    ##    <chr>   <chr>                  <chr>                <dbl>         <dbl>
    ##  1 ALABAMA Alabama A&M University <NA>                  5333            12
    ##  2 <NA>    Jacksonville State Un… <NA>                  8659             7
    ##  3 <NA>    Samford University     <NA>                  4933             3
    ##  4 <NA>    Tuskegee University    <NA>                  3103             5
    ##  5 <NA>    University of Alabama: Birming…             18698            24
    ##  6 <NA>    <NA>                   Huntsvi…              7348            10
    ##  7 <NA>    <NA>                   Tuscalo…             36047            15
    ##  8 <NA>    University of South A… <NA>                 15805            21
    ##  9 ALASKA  University of Alaska:  Anchora…             17151             4
    ## 10 <NA>    <NA>                   Fairban…              8620             3
    ## # ... with 670 more rows, and 10 more variables:
    ## #   murder_and_nonnegligent_manslaughter <dbl>,
    ## #   rape_revised_definition <dbl>, rape_legacy_definition <dbl>,
    ## #   robbery <dbl>, aggravated_assault <dbl>, property_crime <dbl>,
    ## #   burglary <dbl>, larceny_theft <dbl>, motor_vehicle_theft <dbl>,
    ## #   arson <dbl>

To do this, we can use the `tidyr` package, whose function `fill()` will
do just this:

``` r
library(tidyr)
(crime %<>% 
  fill(state, university.college))
```

    ## # A tibble: 680 x 15
    ##    state   university.college     campus   student_enrollme… violent_crime
    ##    <chr>   <chr>                  <chr>                <dbl>         <dbl>
    ##  1 ALABAMA Alabama A&M University <NA>                  5333            12
    ##  2 ALABAMA Jacksonville State Un… <NA>                  8659             7
    ##  3 ALABAMA Samford University     <NA>                  4933             3
    ##  4 ALABAMA Tuskegee University    <NA>                  3103             5
    ##  5 ALABAMA University of Alabama: Birming…             18698            24
    ##  6 ALABAMA University of Alabama: Huntsvi…              7348            10
    ##  7 ALABAMA University of Alabama: Tuscalo…             36047            15
    ##  8 ALABAMA University of South A… <NA>                 15805            21
    ##  9 ALASKA  University of Alaska:  Anchora…             17151             4
    ## 10 ALASKA  University of Alaska:  Fairban…              8620             3
    ## # ... with 670 more rows, and 10 more variables:
    ## #   murder_and_nonnegligent_manslaughter <dbl>,
    ## #   rape_revised_definition <dbl>, rape_legacy_definition <dbl>,
    ## #   robbery <dbl>, aggravated_assault <dbl>, property_crime <dbl>,
    ## #   burglary <dbl>, larceny_theft <dbl>, motor_vehicle_theft <dbl>,
    ## #   arson <dbl>
…
