…
## Using group\_by, summarise, and tidyr::spread(), rank all genes by their fold-change in response to drug overall.

### Q: What are the top 5 proteins that increase following drug treatment?

**Hint:** You’ll first want to use tidyr::drop\_na() to remove missing
data or else you’ll get NA values\!

Your output should look something like this:

    ## # A tibble: 77 x 4
    ##    gene    Memantine Saline fold_change
    ##    <chr>       <dbl>  <dbl>       <dbl>
    ##  1 gene_1      3.77   3.28         1.15
    ##  2 gene_2      0.433  0.396        1.09
    ##  3 gene_3      0.785  0.730        1.07
    ##  4 gene_4      0.544  0.509        1.07
    ##  5 gene_5      0.749  0.703        1.07
    ##  6 gene_6      0.322  0.303        1.06
    ##  7 gene_7      1.27   1.20         1.06
    ##  8 gene_8      0.187  0.176        1.06
    ##  9 gene_9      0.600  0.569        1.05
    ## 10 gene_10     0.238  0.227        1.05
    ## # ... with 67 more rows
…
